country_decisions = {

	roadwarrior_upgrades = {
		major = yes
		potential = {
			tag = H91
			has_reform = roadwarrior_mad_band
		}
		allow = {
			if = {
				limit = { NOT = { has_reform = roadwarrior_upgrades_on_the_go } }
				capital_scope = {
					OR = {
						has_terrain = dwarven_hold
						has_terrain = dwarven_hold_surface
					}
				}
			}
			NOT = { has_country_modifier = roadwarrior_upgrading }
		}
		effect = {
			country_event = { id = roadwarrior.1 }
		}
	}

	roadwarrior_teleport = {
		major = yes
		potential = {
			tag = H91
			has_reform = roadwarrior_mad_band
		}
		allow = {
			capital_scope = {
				OR = {
					has_terrain = dwarven_hold
					has_terrain = dwarven_hold_surface
					has_terrain = dwarven_road
				}
			}
			NOT = { is_at_war = yes }
			NOT = { has_country_modifier = roadwarrior_recent_overdrive }
		}
		effect = {
			country_event = { id = roadwarrior.9 }
		}
	}

	roadwarrior_settle_down = {
		major = yes
		potential = {
			tag = H91
			has_reform = roadwarrior_mad_band
		}
		allow = {
			capital_scope = {
				OR = {
					has_terrain = dwarven_hold
					has_terrain = dwarven_hold_surface
				}
			}
		}
		effect = {
			country_event = { id = roadwarrior.10 }
		}
	}
}